Malika’s Data Analysis Portfolio - ml-models-exercise
…
RF_fit <- RF_workflow %>%
  fit(data=mavoglurant)

Next step is model prediction and model performance evaluation.

#Computing model predictions
lin_predicts <- predict(lin_fit, new_data = mavoglurant)
LASSO_predicts <- predict(LASSO_fit, new_data = mavoglurant)
RF_predicts <- predict(RF_fit, new_data = mavoglurant)

#augment to evaluate performance metric
lin_aug <- augment(lin_fit, mavoglurant)
lin_aug %>% select(Y, .pred)

# A tibble: 120 × 2
       Y .pred
   <dbl> <dbl>
 1 2691. 1666.
 2 2639. 1951.
 3 2150. 1896.
 4 1789. 1548.
 5 3126. 2369.
 6 2337. 1921.
 7 3007. 1510.
 8 2796. 2156.
 9 3866. 2658.
10 1762. 1352.
# ℹ 110 more rows

LASSO_aug <- augment(LASSO_fit, mavoglurant)
LASSO_aug %>% select(Y, .pred)

# A tibble: 120 × 2
       Y .pred
   <dbl> <dbl>
 1 2691. 1665.
 2 2639. 1951.
 3 2150. 1901.
 4 1789. 1553.
 5 3126. 2358.
 6 2337. 1929.
 7 3007. 1513.
 8 2796. 2154.
 9 3866. 2644.
10 1762. 1345.
# ℹ 110 more rows

RF_aug <- augment(RF_fit, mavoglurant)
RF_aug %>% select(Y, .pred)

# A tibble: 120 × 2
       Y .pred
   <dbl> <dbl>
 1 2691. 2233.
 2 2639. 2431.
 3 2150. 1939.
 4 1789. 1822.
 5 3126. 2698.
 6 2337. 1974.
 7 3007. 2326.
 8 2796. 2600.
 9 3866. 2965.
10 1762. 1625.
# ℹ 110 more rows
…
