Malika’s Data Analysis Portfolio - fitting-exercise
…
The estimates suggests a positive relationship between the Y and DOSE indicating a unit increase in DOSE increases Y by 58.21 units.

RMSE is computed for this model with the help of ChatGPT.

#First predict using the model
lm_dose_pred <- predict(lm_dose, new_data = data_final)%>%
  bind_cols(data_final) #adds the predicted values to the same dataframe

lm_dose_pred

# A tibble: 120 × 8
   .pred     Y  DOSE   AGE SEX   RACE     WT    HT
   <dbl> <dbl> <dbl> <int> <fct> <fct> <dbl> <dbl>
 1 1778. 2691.    25    42 1     2      94.3  1.77
 2 1778. 2639.    25    24 1     2      80.4  1.76
 3 1778. 2150.    25    31 1     1      71.8  1.81
 4 1778. 1789.    25    46 2     1      77.4  1.65
 5 1778. 3126.    25    41 2     2      64.3  1.56
 6 1778. 2337.    25    27 1     2      74.1  1.83
 7 1778. 3007.    25    23 1     1      87.9  1.85
 8 1778. 2796.    25    20 1     88     61.9  1.73
 9 1778. 3866.    25    23 1     2      65.3  1.65
10 1778. 1762.    25    28 1     1     104.   1.84
# ℹ 110 more rows
…
The estimates suggests, controlling for the effects of other variables, there is a positive relationship of Y with each of DOSE and AGE and a negative relation with each of WT and HT. Holding all other variables constant, Y is expected to decrease for a change in SEX variable from 1 to 2 and Y is expected to increase for a change in RACE variable from 1 to 2.

RMSE is computed for this model with the help of ChatGPT.

#First predict using the model
lm_all_pred <- predict(lm_all, new_data = data_final)%>%
  bind_cols(data_final) #adds the predicted values to the same dataframe

lm_all_pred

# A tibble: 120 × 8
   .pred     Y  DOSE   AGE SEX   RACE     WT    HT
   <dbl> <dbl> <dbl> <int> <fct> <fct> <dbl> <dbl>
 1 1675. 2691.    25    42 1     2      94.3  1.77
 2 1946. 2639.    25    24 1     2      80.4  1.76
 3 1974. 2150.    25    31 1     1      71.8  1.81
 4 1654. 1789.    25    46 2     1      77.4  1.65
 5 2162. 3126.    25    41 2     2      64.3  1.56
 6 2048. 2337.    25    27 1     2      74.1  1.83
 7 1547. 3007.    25    23 1     1      87.9  1.85
 8 2173. 2796.    25    20 1     88     61.9  1.73
 9 2373. 3866.    25    23 1     2      65.3  1.65
10 1211. 1762.    25    28 1     1     104.   1.84
# ℹ 110 more rows
…
# A tibble: 2 × 5
  term        estimate std.error statistic p.value
  <chr>          <dbl>     <dbl>     <dbl>   <dbl>
1 (Intercept)  -0.532     0.916     -0.580   0.562
2 DOSE         -0.0359    0.0265    -1.35    0.176

# Predicting on the test data
predictions_dose <- predict(logistic_fit_dose, new_data = test_data, type = "prob")

# Adding the predicted probabilities back to the test set for evaluation
test_data <- bind_cols(test_data, predictions_dose)
test_data

# A tibble: 24 × 9
       Y  DOSE   AGE SEX   RACE     WT    HT .pred_1 .pred_2
   <dbl> <dbl> <int> <fct> <fct> <dbl> <dbl>   <dbl>   <dbl>
 1 2691.  25      42 1     2      94.3  1.77   0.807  0.193 
 2 2639.  25      24 1     2      80.4  1.76   0.807  0.193 
 3 1762.  25      28 1     1     104.   1.84   0.807  0.193 
 4 2549.  25      46 1     1      83    1.78   0.807  0.193 
 5 2934.  37.5    46 1     1      71.2  1.67   0.867  0.133 
 6 2749.  37.5    41 1     1      82.6  1.83   0.867  0.133 
 7 2155.  37.5    30 1     1      85.4  1.86   0.867  0.133 
 8 2085.  37.5    37 1     1     102.   1.81   0.867  0.133 
 9 3004.  50      28 1     1      83.2  1.74   0.911  0.0890
10 3514.  50      32 1     2      78.9  1.74   0.911  0.0890
# ℹ 14 more rows
…
